{"datapath":"us.gov.whitehouse.salaries.2016","success":true,"info":{"rows_limit":10,"total_results":472,"total_pages":48,"current_page":1,"calls_remaining":49996,"seconds_remaining":2539461},"result":[{"name":"Abizaid, Christine S.","status":"Detailee","salary":"156552.0","currency":null,"pay_basis":"Per Annum","position_title":"ADVISOR TO THE CHIEF OF STAFF","serialid":1},{"name":"Abraham, Yohannes A.","status":"Employee","salary":"132000.0","currency":null,"pay_basis":"Per Annum","position_title":"DEPUTY ASSISTANT TO THE PRESIDENT FOR INTERGOVERNMENTAL AFFAIRS AND PUBLIC ENGAGEMENT AND SENIOR ADVISOR TO THE NATIONAL ECONOMIC COUNCIL","serialid":2},{"name":"Abramson, Jerry E.","status":"Employee","salary":"157299.0","currency":null,"pay_basis":"Per Annum","position_title":"DEPUTY ASSISTANT TO THE PRESIDENT AND DIRECTOR OF INTERGOVERNMENTAL AFFAIRS","serialid":3},{"name":"Adams-Falconer, Jr., Thomas M.","status":"Employee","salary":"45613.0","currency":null,"pay_basis":"Per Annum","position_title":"PRESS ASSISTANT FOR REGIONAL AND SPECIALTY MEDIA","serialid":4},{"name":"Adler, Caroline E.","status":"Employee","salary":"115664.0","currency":null,"pay_basis":"Per Annum","position_title":"SPECIAL ASSISTANT TO THE PRESIDENT AND DIRECTOR OF COMMUNICATIONS FOR THE FIRST LADY","serialid":5},{"name":"Albarzinji, Zakaria S.","status":"Employee","salary":"65000.0","currency":null,"pay_basis":"Per Annum","position_title":"ASSOCIATE DIRECTOR OF PUBLIC ENGAGEMENT","serialid":6},{"name":"Alcantara, Elias ","status":"Employee","salary":"75000.0","currency":null,"pay_basis":"Per Annum","position_title":"SENIOR ASSOCIATE DIRECTOR OF INTERGOVERNMENTAL AFFAIRS","serialid":7},{"name":"Ali, Mohammed I.","status":"Employee","salary":"48500.0","currency":null,"pay_basis":"Per Annum","position_title":"SENIOR LEGISLATIVE ASSISTANT","serialid":8},{"name":"Allen, Angelica P.","status":"Employee","salary":"50730.0","currency":null,"pay_basis":"Per Annum","position_title":"SPECIAL ASSISTANT TO THE DIRECTOR OF THE OFFICE OF POLITICAL STRATEGY AND OUTREACH","serialid":9},{"name":"Allen, Elizabeth M.","status":"Employee","salary":"142044.0","currency":null,"pay_basis":"Per Annum","position_title":"DEPUTY ASSISTANT TO THE PRESIDENT AND DEPUTY DIRECTOR OF COMMUNICATIONS","serialid":10}]}